<svg width="103" height="14" viewBox="0 0 103 14" fill="none" xmlns="http://www.w3.org/2000/svg">
<path d="M6.51 4.42C6.118 5.67067 5.72133 6.828 5.32 7.892C4.91867 8.956 4.51733 9.992 4.116 11H2.758C2.26333 9.572 1.82467 8.06467 1.442 6.478C1.06867 4.89133 0.718667 3.16467 0.392 1.298H1.82C1.95067 2.026 2.086 2.754 2.226 3.482C2.366 4.21 2.51067 4.91933 2.66 5.61C2.80933 6.29133 2.95867 6.94467 3.108 7.57C3.25733 8.19533 3.41133 8.774 3.57 9.306C3.94333 8.326 4.34 7.25267 4.76 6.086C5.18 4.91 5.572 3.69667 5.936 2.446H7.112C7.476 3.69667 7.87267 4.91 8.302 6.086C8.73133 7.25267 9.13267 8.326 9.506 9.306C9.65533 8.78333 9.80467 8.20933 9.954 7.584C10.1033 6.95867 10.248 6.30533 10.388 5.624C10.5373 4.93333 10.682 4.224 10.822 3.496C10.962 2.75867 11.0973 2.026 11.228 1.298H12.614C12.278 3.16467 11.9187 4.89133 11.536 6.478C11.1627 8.06467 10.7333 9.572 10.248 11H8.89C8.47933 9.992 8.078 8.956 7.686 7.892C7.294 6.828 6.902 5.67067 6.51 4.42ZM13.4015 7.374C13.4015 6.73 13.4948 6.17 13.6815 5.694C13.8682 5.20867 14.1155 4.80733 14.4235 4.49C14.7315 4.17267 15.0862 3.93467 15.4875 3.776C15.8888 3.61733 16.2995 3.538 16.7195 3.538C17.6995 3.538 18.4508 3.846 18.9735 4.462C19.4962 5.06867 19.7575 5.99733 19.7575 7.248C19.7575 7.304 19.7575 7.37867 19.7575 7.472C19.7575 7.556 19.7528 7.63533 19.7435 7.71H14.7595C14.8155 8.466 15.0348 9.04 15.4175 9.432C15.8002 9.824 16.3975 10.02 17.2095 10.02C17.6668 10.02 18.0495 9.98267 18.3575 9.908C18.6748 9.824 18.9128 9.74467 19.0715 9.67L19.2535 10.762C19.0948 10.846 18.8148 10.9347 18.4135 11.028C18.0215 11.1213 17.5735 11.168 17.0695 11.168C16.4348 11.168 15.8842 11.0747 15.4175 10.888C14.9602 10.692 14.5822 10.426 14.2835 10.09C13.9848 9.754 13.7608 9.35733 13.6115 8.9C13.4715 8.43333 13.4015 7.92467 13.4015 7.374ZM18.3995 6.66C18.4088 6.072 18.2595 5.59133 17.9515 5.218C17.6528 4.83533 17.2375 4.644 16.7055 4.644C16.4068 4.644 16.1408 4.70467 15.9075 4.826C15.6835 4.938 15.4922 5.08733 15.3335 5.274C15.1748 5.46067 15.0488 5.67533 14.9555 5.918C14.8715 6.16067 14.8155 6.408 14.7875 6.66H18.3995ZM23.8118 11.14C23.0091 11.1213 22.4398 10.9487 22.1038 10.622C21.7678 10.2953 21.5998 9.78667 21.5998 9.096V0.359999L22.9018 0.136V8.886C22.9018 9.10067 22.9205 9.278 22.9578 9.418C22.9951 9.558 23.0558 9.67 23.1398 9.754C23.2238 9.838 23.3358 9.90333 23.4758 9.95C23.6158 9.98733 23.7885 10.02 23.9938 10.048L23.8118 11.14ZM28.6199 11.168C28.0319 11.168 27.5139 11.0747 27.0659 10.888C26.6273 10.7013 26.2539 10.44 25.9459 10.104C25.6473 9.768 25.4233 9.37133 25.2739 8.914C25.1246 8.44733 25.0499 7.934 25.0499 7.374C25.0499 6.814 25.1293 6.30067 25.2879 5.834C25.4559 5.36733 25.6893 4.966 25.9879 4.63C26.2866 4.28467 26.6506 4.01867 27.0799 3.832C27.5186 3.636 28.0039 3.538 28.5359 3.538C28.8626 3.538 29.1893 3.566 29.5159 3.622C29.8426 3.678 30.1553 3.76667 30.4539 3.888L30.1599 4.994C29.9639 4.90067 29.7353 4.826 29.4739 4.77C29.2219 4.714 28.9513 4.686 28.6619 4.686C27.9339 4.686 27.3739 4.91467 26.9819 5.372C26.5993 5.82933 26.4079 6.49667 26.4079 7.374C26.4079 7.766 26.4499 8.12533 26.5339 8.452C26.6273 8.77867 26.7673 9.05867 26.9539 9.292C27.1499 9.52533 27.3973 9.70733 27.6959 9.838C27.9946 9.95933 28.3586 10.02 28.7879 10.02C29.1333 10.02 29.4459 9.98733 29.7259 9.922C30.0059 9.85667 30.2253 9.78667 30.3839 9.712L30.5659 10.804C30.4913 10.8507 30.3839 10.8973 30.2439 10.944C30.1039 10.9813 29.9453 11.014 29.7679 11.042C29.5906 11.0793 29.3993 11.1073 29.1939 11.126C28.9979 11.154 28.8066 11.168 28.6199 11.168ZM38.212 7.36C38.212 7.93867 38.128 8.46133 37.96 8.928C37.792 9.39467 37.554 9.796 37.246 10.132C36.9473 10.468 36.588 10.7293 36.168 10.916C35.748 11.0933 35.2907 11.182 34.796 11.182C34.3013 11.182 33.844 11.0933 33.424 10.916C33.004 10.7293 32.64 10.468 32.332 10.132C32.0333 9.796 31.8 9.39467 31.632 8.928C31.464 8.46133 31.38 7.93867 31.38 7.36C31.38 6.79067 31.464 6.27267 31.632 5.806C31.8 5.33 32.0333 4.924 32.332 4.588C32.64 4.252 33.004 3.99533 33.424 3.818C33.844 3.63133 34.3013 3.538 34.796 3.538C35.2907 3.538 35.748 3.63133 36.168 3.818C36.588 3.99533 36.9473 4.252 37.246 4.588C37.554 4.924 37.792 5.33 37.96 5.806C38.128 6.27267 38.212 6.79067 38.212 7.36ZM36.854 7.36C36.854 6.53867 36.6673 5.89 36.294 5.414C35.93 4.92867 35.4307 4.686 34.796 4.686C34.1613 4.686 33.6573 4.92867 33.284 5.414C32.92 5.89 32.738 6.53867 32.738 7.36C32.738 8.18133 32.92 8.83467 33.284 9.32C33.6573 9.796 34.1613 10.034 34.796 10.034C35.4307 10.034 35.93 9.796 36.294 9.32C36.6673 8.83467 36.854 8.18133 36.854 7.36ZM40.0438 3.93C40.3425 3.85533 40.7345 3.776 41.2198 3.692C41.7145 3.608 42.2838 3.566 42.9278 3.566C43.3945 3.566 43.7865 3.63133 44.1038 3.762C44.4212 3.88333 44.6872 4.06533 44.9018 4.308C44.9672 4.26133 45.0698 4.196 45.2098 4.112C45.3498 4.028 45.5225 3.94867 45.7278 3.874C45.9332 3.79 46.1618 3.72 46.4138 3.664C46.6658 3.59867 46.9365 3.566 47.2258 3.566C47.7858 3.566 48.2432 3.65 48.5978 3.818C48.9525 3.97667 49.2278 4.20533 49.4238 4.504C49.6292 4.80267 49.7645 5.15733 49.8298 5.568C49.9045 5.97867 49.9418 6.42667 49.9418 6.912V11H48.6398V7.192C48.6398 6.76267 48.6165 6.394 48.5698 6.086C48.5325 5.778 48.4532 5.52133 48.3318 5.316C48.2198 5.11067 48.0612 4.96133 47.8558 4.868C47.6598 4.76533 47.4032 4.714 47.0858 4.714C46.6472 4.714 46.2832 4.77467 45.9938 4.896C45.7138 5.008 45.5225 5.11067 45.4198 5.204C45.4945 5.44667 45.5505 5.71267 45.5878 6.002C45.6252 6.29133 45.6438 6.59467 45.6438 6.912V11H44.3418V7.192C44.3418 6.76267 44.3185 6.394 44.2718 6.086C44.2252 5.778 44.1412 5.52133 44.0198 5.316C43.9078 5.11067 43.7492 4.96133 43.5438 4.868C43.3478 4.76533 43.0958 4.714 42.7878 4.714C42.6572 4.714 42.5172 4.71867 42.3678 4.728C42.2185 4.73733 42.0738 4.75133 41.9338 4.77C41.8032 4.77933 41.6818 4.79333 41.5698 4.812C41.4578 4.83067 41.3832 4.84467 41.3458 4.854V11H40.0438V3.93ZM51.6964 7.374C51.6964 6.73 51.7898 6.17 51.9764 5.694C52.1631 5.20867 52.4104 4.80733 52.7184 4.49C53.0264 4.17267 53.3811 3.93467 53.7824 3.776C54.1838 3.61733 54.5944 3.538 55.0144 3.538C55.9944 3.538 56.7458 3.846 57.2684 4.462C57.7911 5.06867 58.0524 5.99733 58.0524 7.248C58.0524 7.304 58.0524 7.37867 58.0524 7.472C58.0524 7.556 58.0478 7.63533 58.0384 7.71H53.0544C53.1104 8.466 53.3298 9.04 53.7124 9.432C54.0951 9.824 54.6924 10.02 55.5044 10.02C55.9618 10.02 56.3444 9.98267 56.6524 9.908C56.9698 9.824 57.2078 9.74467 57.3664 9.67L57.5484 10.762C57.3898 10.846 57.1098 10.9347 56.7084 11.028C56.3164 11.1213 55.8684 11.168 55.3644 11.168C54.7298 11.168 54.1791 11.0747 53.7124 10.888C53.2551 10.692 52.8771 10.426 52.5784 10.09C52.2798 9.754 52.0558 9.35733 51.9064 8.9C51.7664 8.43333 51.6964 7.92467 51.6964 7.374ZM56.6944 6.66C56.7038 6.072 56.5544 5.59133 56.2464 5.218C55.9478 4.83533 55.5324 4.644 55.0004 4.644C54.7018 4.644 54.4358 4.70467 54.2024 4.826C53.9784 4.938 53.7871 5.08733 53.6284 5.274C53.4698 5.46067 53.3438 5.67533 53.2504 5.918C53.1664 6.16067 53.1104 6.408 53.0824 6.66H56.6944ZM61.2947 9.404C61.3041 9.47867 61.3087 9.55333 61.3087 9.628C61.3087 9.69333 61.3087 9.76333 61.3087 9.838C61.3087 10.426 61.2201 11.0047 61.0427 11.574C60.8747 12.1527 60.6414 12.7033 60.3427 13.226L59.3347 12.904C59.5681 12.428 59.7221 11.9427 59.7967 11.448C59.8714 10.9627 59.9087 10.5053 59.9087 10.076C59.9087 9.95467 59.9041 9.838 59.8947 9.726C59.8947 9.614 59.8901 9.50667 59.8807 9.404H61.2947ZM72.5303 9.824V11H66.6923V1.298H68.0503V9.824H72.5303ZM80.13 7.36C80.13 7.93867 80.046 8.46133 79.878 8.928C79.71 9.39467 79.472 9.796 79.164 10.132C78.8653 10.468 78.506 10.7293 78.086 10.916C77.666 11.0933 77.2087 11.182 76.714 11.182C76.2193 11.182 75.762 11.0933 75.342 10.916C74.922 10.7293 74.558 10.468 74.25 10.132C73.9513 9.796 73.718 9.39467 73.55 8.928C73.382 8.46133 73.298 7.93867 73.298 7.36C73.298 6.79067 73.382 6.27267 73.55 5.806C73.718 5.33 73.9513 4.924 74.25 4.588C74.558 4.252 74.922 3.99533 75.342 3.818C75.762 3.63133 76.2193 3.538 76.714 3.538C77.2087 3.538 77.666 3.63133 78.086 3.818C78.506 3.99533 78.8653 4.252 79.164 4.588C79.472 4.924 79.71 5.33 79.878 5.806C80.046 6.27267 80.13 6.79067 80.13 7.36ZM78.772 7.36C78.772 6.53867 78.5853 5.89 78.212 5.414C77.848 4.92867 77.3487 4.686 76.714 4.686C76.0793 4.686 75.5753 4.92867 75.202 5.414C74.838 5.89 74.656 6.53867 74.656 7.36C74.656 8.18133 74.838 8.83467 75.202 9.32C75.5753 9.796 76.0793 10.034 76.714 10.034C77.3487 10.034 77.848 9.796 78.212 9.32C78.5853 8.83467 78.772 8.18133 78.772 7.36ZM86.5258 10.272C86.4138 10.3467 86.1945 10.4447 85.8678 10.566C85.5505 10.678 85.1771 10.734 84.7478 10.734C84.3091 10.734 83.8938 10.664 83.5018 10.524C83.1191 10.384 82.7831 10.1693 82.4938 9.88C82.2045 9.58133 81.9758 9.21267 81.8078 8.774C81.6398 8.33533 81.5558 7.81267 81.5558 7.206C81.5558 6.674 81.6351 6.18867 81.7938 5.75C81.9525 5.302 82.1811 4.91933 82.4798 4.602C82.7878 4.27533 83.1611 4.02333 83.5998 3.846C84.0385 3.65933 84.5331 3.566 85.0838 3.566C85.6905 3.566 86.2178 3.61267 86.6658 3.706C87.1231 3.79 87.5058 3.86933 87.8138 3.944V10.44C87.8138 11.56 87.5245 12.372 86.9458 12.876C86.3671 13.38 85.4898 13.632 84.3138 13.632C83.8565 13.632 83.4225 13.5947 83.0118 13.52C82.6105 13.4453 82.2605 13.3567 81.9618 13.254L82.1998 12.12C82.4611 12.2227 82.7785 12.3113 83.1518 12.386C83.5345 12.47 83.9311 12.512 84.3418 12.512C85.1165 12.512 85.6718 12.358 86.0078 12.05C86.3531 11.742 86.5258 11.252 86.5258 10.58V10.272ZM86.5118 4.868C86.3811 4.83067 86.2038 4.798 85.9798 4.77C85.7651 4.73267 85.4711 4.714 85.0978 4.714C84.3978 4.714 83.8565 4.94267 83.4738 5.4C83.1005 5.85733 82.9138 6.464 82.9138 7.22C82.9138 7.64 82.9651 7.99933 83.0678 8.298C83.1798 8.59667 83.3245 8.844 83.5018 9.04C83.6885 9.236 83.8985 9.38067 84.1318 9.474C84.3745 9.56733 84.6218 9.614 84.8738 9.614C85.2191 9.614 85.5365 9.56733 85.8258 9.474C86.1151 9.37133 86.3438 9.25467 86.5118 9.124V4.868ZM93.3798 1.298H94.7378V11H93.3798V1.298ZM97.0555 3.93C97.3542 3.85533 97.7509 3.776 98.2455 3.692C98.7402 3.608 99.3095 3.566 99.9535 3.566C100.532 3.566 101.013 3.65 101.396 3.818C101.778 3.97667 102.082 4.20533 102.306 4.504C102.539 4.79333 102.702 5.14333 102.796 5.554C102.889 5.96467 102.936 6.41733 102.936 6.912V11H101.634V7.192C101.634 6.744 101.601 6.36133 101.536 6.044C101.48 5.72667 101.382 5.47 101.242 5.274C101.102 5.078 100.915 4.938 100.682 4.854C100.448 4.76067 100.159 4.714 99.8135 4.714C99.6735 4.714 99.5289 4.71867 99.3795 4.728C99.2302 4.73733 99.0855 4.75133 98.9455 4.77C98.8149 4.77933 98.6935 4.79333 98.5815 4.812C98.4789 4.83067 98.4042 4.84467 98.3575 4.854V11H97.0555V3.93Z" fill="white"/>
</svg>
